<?xml version="1.0" encoding="utf-8"?>
<!-- Generator: Adobe Illustrator 18.1.0, SVG Export Plug-In . SVG Version: 6.00 Build 0)  -->
<svg version="1.1" id="Layer_1" xmlns="http://www.w3.org/2000/svg" xmlns:xlink="http://www.w3.org/1999/xlink" x="0px" y="0px"
	 viewBox="0 0 535.4 128.6" enable-background="new 0 0 535.4 128.6" xml:space="preserve">
<path fill="#FFFFFF" d="M187.9,0H94.4c-5.6,0-10.1,4.2-10.1,9.4v14.9C75.4,17,64.1,12.6,51.7,12.6C23.1,12.6,0,35.7,0,64.3
	C0,92.8,23.1,116,51.7,116c12.4,0,23.8-4.4,32.7-11.6v14.9c0,5.2,4.5,9.4,10.1,9.4h93.5c5.6,0,10.1-4.2,10.1-9.4V9.4
	C198,4.2,193.5,0,187.9,0z M189.5,63.4c-0.5,0.6-1.6,1.8-2.8,3l-1.5,1.6c-0.5,0.5-1,1-1.4,1.4h0l-2.8,2.9l-2.4,2.5l-0.3,0.3
	l-2.5,1.3l-9.9,0.1v-4h1.3v-0.3v0l-6.7-3.5l-2.8,2.4v-1.7h-0.5l-0.4,0.3v2.1l-0.5,0.4v0.3h0.5v0.9v2l-3.6,2.7l-5.9,0l-5.1-2.4v-2.2
	l-0.5-0.7h0.5c0,0,0.5-0.2,0-0.7h-0.7l-0.2,0.2c0,0-1-1.4-1.5-1.4h-3.3c0,0-0.8,0.3-1.4,1.4l-0.2-0.2l-0.8,0c0,0-0.4,0.3-0.1,0.6
	l0.7,0l-0.5,0.7v2.2l-2.5,1.4l-2.8-1.4v-4.2l-6.9,0l-9.2-4.7l-3.2,3.2v-2.2h-0.7l-0.4,0.4v2.8l-0.5,0.5v0.4h0.5v1.2l-0.6,0.7v0.7
	l0,2.6l-9,0v2.6c0,0.9-0.3,1.6-0.8,1.6H84.9c-6.1,13.6-19.3,23-34.6,23c-21,0-38.1-17.8-38.1-39.7c0-22,17.1-39.7,38.1-39.7
	c15.3,0,28.5,9.4,34.6,23h13.6c0.4,0,0.8,0.7,0.8,1.6v1.6h77.4c0,0,3,0.1,4.8,1.6c0.4,0.4,1.2,1,2,1.8h0l0.2,0.2
	c0.1,0.1,0.3,0.3,0.5,0.5H95.2c0,0-3.3,0.9-3.3,1.8s2.4,1.8,3.3,1.8h92.5h0c1.1,1.1,1.8,1.9,1.8,1.9S191,61.8,189.5,63.4z"/>
<circle fill="#FFFFFF" cx="33.1" cy="64.3" r="6.6"/>
<g>
	<g>
		<path fill="#FFFFFF" d="M250.6,32.1c-2-2.9-6.1-4.7-10.6-4.8c-5.7,0-9.9,2.4-9.9,6.5c0,4.2,4.8,5.3,10.4,6.1
			c8.8,1.2,17.2,3.7,17.2,13.2c-0.1,9.6-8.8,13.2-17.7,13.2c-8.2,0-14.5-2.5-18.4-9.7l5.1-3.4c3.1,5.2,8.4,7,13.3,7
			c5.1,0,10.8-1.7,10.8-7.1c0-4.6-4.9-6.2-10.9-7c-8.5-1.2-16.5-3.3-16.5-12.5c-0.1-8.9,8.8-12.3,16.5-12.3c6.2,0,12.3,1.5,15.9,7.2
			L250.6,32.1z"/>
		<path fill="#FFFFFF" d="M262.4,79.3V35.3h5.9l0.4,4.9c2.3-3.7,6.6-5.5,10.6-5.5c9,0.1,15.2,6.6,15.2,15.7S288.7,66,279.3,66
			c-3.7,0-8.4-1.3-10.6-5.1v18.4H262.4z M288.2,50.3c0-5.7-3.8-9.6-9.5-9.6c-5.8,0-9.5,4.2-9.5,9.6c0,5.4,4,9.6,9.5,9.6
			S288.2,55.9,288.2,50.3z"/>
		<path fill="#FFFFFF" d="M323.5,35.3h6.1c0,10,0,20.1,0,30.1h-6l-0.3-4.9c-2,3.8-6.7,5.7-10.4,5.7c-8.8,0.1-15.4-5.6-15.4-15.9
			c0-10.1,6.9-15.7,15.6-15.7c4.3,0,8.4,2,10.3,5.4L323.5,35.3z M303.8,50.3c0,6.2,4.4,10,9.8,10c13,0,13-20,0-20
			C308.2,40.3,303.8,44.1,303.8,50.3z"/>
		<path fill="#FFFFFF" d="M341.8,35.3l0.4,4c2.2-3.8,5.6-4.6,8.9-4.6c2.9,0,5.7,1,7.4,2.6l-2.9,5.5c-1.5-1.2-3-1.8-5.3-1.8
			c-4.3,0-8.1,2.7-8.1,8.2v16.3h-6.3V35.3H341.8z"/>
		<path fill="#FFFFFF" d="M364.6,52.7c0.5,4.6,4.3,7.6,9.8,7.6c3.1,0,6.9-1.2,8.7-3.2l4.1,4c-3.1,3.4-8.3,5.1-12.9,5.1
			c-9.9,0-16.2-6.3-16.2-15.9c0-9.2,6.4-15.7,15.8-15.7c9.7,0,16.3,5.9,15.1,18.2H364.6z M383,47.3c-0.4-4.8-3.8-7.3-8.9-7.3
			c-4.6,0-8.4,2.5-9.3,7.3H383z"/>
		<path fill="#FFFFFF" d="M442.5,22.9l-19.6,20.4l21.3,21.7v0.4h-8.5l-19-19.5v19.5h-6.8V22.6h6.8v18.4L434,22.6h8.5V22.9z"/>
		<path fill="#FFFFFF" d="M449.1,52.7c0.5,4.6,4.3,7.6,9.8,7.6c3.1,0,6.9-1.2,8.7-3.2l4.1,4c-3.1,3.4-8.3,5.1-12.9,5.1
			c-9.9,0-16.2-6.3-16.2-15.9c0-9.2,6.4-15.7,15.8-15.7c9.7,0,16.3,5.9,15.1,18.2H449.1z M467.4,47.3c-0.4-4.8-3.8-7.3-8.9-7.3
			c-4.6,0-8.4,2.5-9.3,7.3H467.4z"/>
		<path fill="#FFFFFF" d="M505.4,35.3l-19,44.1h-7l6.2-14.4l-12-29.7h7.3l5.2,14.2l3,8.5l3.2-8.4l6-14.3H505.4z"/>
		<path fill="#FFFFFF" d="M527.1,42.6c-2.4-2.2-4.9-2.8-7.9-2.8c-3.8-0.1-6.4,1.2-6.4,3.6c0.1,2.5,2.7,3.5,6.5,3.8
			c5.6,0.5,12.8,1.7,12.8,9.5c-0.1,5.6-5,9.5-12.8,9.5c-4.9,0-9.8-1.1-13.7-5.6l3.3-4.5c2.8,3.1,7,4.4,10.6,4.5c3,0,6.3-1.1,6.4-3.9
			c0.1-2.7-2.5-3.7-7-4.2c-5.7-0.5-12.2-2.4-12.3-9c0-6.7,6.9-9.2,12.5-9.2c4.6,0,8.2,1,11.6,4L527.1,42.6z"/>
	</g>
	<g>
		<path fill="#FFFFFF" d="M234.5,92c-0.9-1.3-2.7-2.1-4.7-2.1c-2.5,0-4.4,1.1-4.4,2.9c0,1.8,2.1,2.4,4.6,2.7
			c3.9,0.5,7.6,1.6,7.6,5.9c0,4.3-3.9,5.9-7.9,5.9c-3.6,0-6.4-1.1-8.2-4.3l2.3-1.5c1.4,2.3,3.7,3.1,5.9,3.1c2.3,0,4.8-0.8,4.8-3.1
			c0-2.1-2.2-2.8-4.8-3.1c-3.8-0.5-7.3-1.5-7.3-5.5c0-3.9,3.9-5.4,7.3-5.4c2.7,0,5.5,0.7,7.1,3.2L234.5,92z"/>
		<path fill="#FFFFFF" d="M250.7,93.4h2.7c0,4.4,0,8.9,0,13.4h-2.7l-0.1-2.2c-0.9,1.7-3,2.5-4.6,2.5c-3.9,0-6.9-2.5-6.9-7
			c0-4.5,3.1-7,6.9-7c1.9,0,3.7,0.9,4.6,2.4L250.7,93.4z M241.9,100.1c0,2.8,2,4.4,4.3,4.4c5.8,0,5.8-8.9,0-8.9
			C243.9,95.6,241.9,97.3,241.9,100.1z"/>
		<path fill="#FFFFFF" d="M257.7,106.7V96h-2.5v-2.5h2.5v-1c0-3.3,2.1-5.1,4.8-5.1c1.1,0,2.3,0.4,3.3,1.1l-1.1,2.1
			c-0.7-0.5-1.3-0.7-2-0.7c-1.3,0-2.2,0.8-2.2,2.6v1h4V96h-4v10.7H257.7z"/>
		<path fill="#FFFFFF" d="M268.2,101.1c0.2,2,1.9,3.4,4.4,3.4c1.4,0,3.1-0.5,3.9-1.4l1.8,1.8c-1.4,1.5-3.7,2.3-5.7,2.3
			c-4.4,0-7.2-2.8-7.2-7.1c0-4.1,2.8-7,7-7c4.3,0,7.2,2.6,6.7,8.1H268.2z M276.3,98.8c-0.2-2.1-1.7-3.2-4-3.2c-2,0-3.7,1.1-4.1,3.2
			H276.3z"/>
		<path fill="#FFFFFF" d="M283.8,105.3c0,2.3-3.4,2.3-3.4,0C280.4,103,283.8,103,283.8,105.3z"/>
		<path fill="#FFFFFF" d="M304.9,92c-0.9-1.3-2.7-2.1-4.7-2.1c-2.5,0-4.4,1.1-4.4,2.9c0,1.8,2.1,2.4,4.6,2.7
			c3.9,0.5,7.6,1.6,7.6,5.9c0,4.3-3.9,5.9-7.9,5.9c-3.6,0-6.4-1.1-8.2-4.3l2.3-1.5c1.4,2.3,3.7,3.1,5.9,3.1c2.3,0,4.8-0.8,4.8-3.1
			c0-2.1-2.2-2.8-4.9-3.1c-3.8-0.5-7.3-1.5-7.3-5.5c0-3.9,3.9-5.4,7.3-5.4c2.7,0,5.5,0.7,7.1,3.2L304.9,92z"/>
		<path fill="#FFFFFF" d="M312.5,101.1c0.2,2,1.9,3.4,4.4,3.4c1.4,0,3.1-0.5,3.9-1.4l1.8,1.8c-1.4,1.5-3.7,2.3-5.7,2.3
			c-4.4,0-7.2-2.8-7.2-7.1c0-4.1,2.8-7,7-7c4.3,0,7.2,2.6,6.7,8.1H312.5z M320.6,98.8c-0.2-2.1-1.7-3.2-4-3.2c-2,0-3.7,1.1-4.1,3.2
			H320.6z"/>
		<path fill="#FFFFFF" d="M336.9,105c-1.5,1.5-3.1,2.1-5.1,2.1c-3.8,0-7-2.4-7-7c0-4.6,3.2-7,7-7c1.8,0,3.4,0.6,4.8,2l-1.8,1.9
			c-0.8-0.8-2-1.2-3-1.2c-2.4,0-4.3,1.7-4.3,4.4c0,2.8,2,4.3,4.3,4.3c1.1,0,2.3-0.4,3.2-1.2L336.9,105z"/>
		<path fill="#FFFFFF" d="M341.1,93.4v7.2c0,2.3,1.3,3.8,3.6,3.8c2.2,0,3.7-1.8,3.7-4v-7h2.8v13.4h-2.5l-0.2-2
			c-1.3,1.5-2.7,2.2-4.6,2.2c-3.3,0-5.6-2.4-5.6-6.4v-7.2H341.1z"/>
		<path fill="#FFFFFF" d="M356.9,93.4l0.2,1.8c1-1.7,2.5-2.1,3.9-2.1c1.3,0,2.5,0.5,3.3,1.1l-1.3,2.4c-0.7-0.5-1.3-0.8-2.4-0.8
			c-1.9,0-3.6,1.2-3.6,3.7v7.2h-2.8V93.4H356.9z"/>
		<path fill="#FFFFFF" d="M367.3,101.1c0.2,2,1.9,3.4,4.4,3.4c1.4,0,3.1-0.5,3.9-1.4l1.8,1.8c-1.4,1.5-3.7,2.3-5.7,2.3
			c-4.4,0-7.2-2.8-7.2-7.1c0-4.1,2.8-7,7-7c4.3,0,7.2,2.6,6.7,8.1H367.3z M375.4,98.8c-0.2-2.1-1.7-3.2-4-3.2c-2,0-3.7,1.1-4.1,3.2
			H375.4z"/>
		<path fill="#FFFFFF" d="M382.9,105.3c0,2.3-3.4,2.3-3.4,0C379.5,103,382.9,103,382.9,105.3z"/>
		<path fill="#FFFFFF" d="M408.6,104.3c-2,1.9-4.5,2.8-7.1,2.8c-6.9,0-10-4.7-10-9.7s3.2-9.9,10-9.9c2.5,0,5,0.9,6.9,2.9l-2,2
			c-1.4-1.3-3.1-2-4.9-2c-4.8,0-7,3.5-7,7c0,3.5,2.1,6.9,7,6.9c1.8,0,3.7-0.7,5-2.1L408.6,104.3z"/>
		<path fill="#FFFFFF" d="M423.3,100.1c0,4-2.7,6.9-6.9,6.9c-4.2,0-6.9-3-6.9-6.9c0-3.9,2.7-7,6.9-7
			C420.5,93.1,423.3,96.2,423.3,100.1z M412.3,100.1c0,2.4,1.5,4.3,4.1,4.3c2.6,0,4.1-2,4.1-4.3c0-2.4-1.7-4.4-4.1-4.4
			C413.8,95.7,412.3,97.7,412.3,100.1z"/>
		<path fill="#FFFFFF" d="M435.7,106.7v-7.2c0-2.3-1.3-3.8-3.6-3.8c-2.2,0-3.7,1.8-3.7,4v7h-2.8V93.4h2.5l0.2,2
			c1.3-1.4,2.8-2.1,4.5-2.1c3.3,0,5.7,2.3,5.7,6.4v7.2H435.7z"/>
		<path fill="#FFFFFF" d="M453.6,93.4l-5.7,13.4h-3.1l-5.7-13.4h3.1l1.8,4.3l2.4,6.2l2.1-5.7l2-4.9H453.6z"/>
		<path fill="#FFFFFF" d="M456.8,101.1c0.2,2,1.9,3.4,4.4,3.4c1.4,0,3.1-0.5,3.9-1.4l1.8,1.8c-1.4,1.5-3.7,2.3-5.7,2.3
			c-4.4,0-7.2-2.8-7.2-7.1c0-4.1,2.8-7,7-7c4.3,0,7.2,2.6,6.7,8.1H456.8z M464.9,98.8c-0.2-2.1-1.7-3.2-4-3.2c-2,0-3.7,1.1-4.1,3.2
			H464.9z"/>
		<path fill="#FFFFFF" d="M479.9,106.7v-7.2c0-2.3-1.3-3.8-3.6-3.8c-2.2,0-3.7,1.8-3.7,4v7h-2.8V93.4h2.5l0.2,2
			c1.3-1.4,2.8-2.1,4.5-2.1c3.3,0,5.7,2.3,5.7,6.4v7.2H479.9z"/>
		<path fill="#FFFFFF" d="M488.7,89.5c0,2.3-3.5,2.3-3.5,0C485.2,87.2,488.7,87.2,488.7,89.5z M485.5,93.3v13.4h2.8V93.3H485.5z"/>
		<path fill="#FFFFFF" d="M493.4,101.1c0.2,2,1.9,3.4,4.4,3.4c1.4,0,3.1-0.5,3.9-1.4l1.8,1.8c-1.4,1.5-3.7,2.3-5.7,2.3
			c-4.4,0-7.2-2.8-7.2-7.1c0-4.1,2.8-7,7-7c4.3,0,7.2,2.6,6.7,8.1H493.4z M501.5,98.8c-0.2-2.1-1.7-3.2-4-3.2c-2,0-3.7,1.1-4.1,3.2
			H501.5z"/>
		<path fill="#FFFFFF" d="M516.5,106.7v-7.2c0-2.3-1.3-3.8-3.6-3.8c-2.2,0-3.7,1.8-3.7,4v7h-2.8V93.4h2.5l0.2,2
			c1.3-1.4,2.8-2.1,4.5-2.1c3.3,0,5.7,2.3,5.7,6.4v7.2H516.5z"/>
		<path fill="#FFFFFF" d="M526,89.5v3.9h3.9v2.4H526v6.4c0,1.4,0.6,2.2,1.9,2.2c0.5,0,1.2-0.2,1.7-0.5l0.8,2.4
			c-0.9,0.4-1.7,0.6-2.7,0.6c-2.9,0.1-4.6-1.6-4.6-4.7v-6.4h-2.6v-2.4h2.6v-3.6L526,89.5z"/>
		<path fill="#FFFFFF" d="M535.4,105.3c0,2.3-3.4,2.3-3.4,0C532,103,535.4,103,535.4,105.3z"/>
	</g>
</g>
</svg>
